GFORTRAN module version '6' created from filt.f90 on Tue Apr 15 10:45:36 2014
MD5:93cdf0e5544b7eda5f75cd61ee587ffe -- If you edit this, you'll get what you deserve.

(() () () () () () () () () () () () () () () () () () () () () () ()
() () () ())

()

()

()

()

()

(2 '__convert_i4_r4' '(intrinsic)' '__convert_i4_r4' 1 ((PROCEDURE
UNKNOWN-INTENT UNKNOWN-PROC UNKNOWN UNKNOWN 0 0 FUNCTION ELEMENTAL PURE)
(REAL 4 0 0 REAL ()) 0 0 () () 2 () () () 0 0)
3 'box' 'filt' 'box' 1 ((PROCEDURE UNKNOWN-INTENT MODULE-PROC DECL
UNKNOWN 0 0 SUBROUTINE) (UNKNOWN 0 0 0 UNKNOWN ()) 4 0 (5 6) () 0 () ()
() 0 0)
7 'bs' 'def' 'bs' 1 ((PARAMETER UNKNOWN-INTENT UNKNOWN-PROC UNKNOWN
IMPLICIT-SAVE 0 0) (INTEGER 4 0 0 INTEGER ()) 0 0 () (CONSTANT (INTEGER
4 0 0 INTEGER ()) 0 '131072') () 0 () () () 0 0)
8 'c' 'def' 'c' 1 ((PARAMETER UNKNOWN-INTENT UNKNOWN-PROC UNKNOWN
IMPLICIT-SAVE 0 0) (REAL 4 0 0 REAL ()) 0 0 () (CONSTANT (REAL 4 0 0
REAL ()) 0 '0.8000000@0') () 0 () () () 0 0)
9 'cs' 'def' 'cs' 1 ((PARAMETER UNKNOWN-INTENT UNKNOWN-PROC UNKNOWN
IMPLICIT-SAVE 0 0) (REAL 4 0 0 REAL ()) 0 0 () (CONSTANT (REAL 4 0 0
REAL ()) 0 '0.6666668@0') () 0 () () () 0 0)
10 'cs2' 'def' 'cs2' 1 ((PARAMETER UNKNOWN-INTENT UNKNOWN-PROC UNKNOWN
IMPLICIT-SAVE 0 0) (REAL 4 0 0 REAL ()) 0 0 () (CONSTANT (REAL 4 0 0
REAL ()) 0 '0.1944250@-3') () 0 () () () 0 0)
11 'cut_off' 'filt' 'cut_off' 1 ((PROCEDURE UNKNOWN-INTENT MODULE-PROC
DECL UNKNOWN 0 0 SUBROUTINE IMPLICIT_PURE) (UNKNOWN 0 0 0 UNKNOWN ()) 12
0 (13 14 15 16) () 0 () () () 0 0)
17 'def' 'def' 'def' 1 ((MODULE UNKNOWN-INTENT UNKNOWN-PROC UNKNOWN
UNKNOWN 0 0) (UNKNOWN 0 0 0 UNKNOWN ()) 0 0 () () 0 () () () 0 0)
18 'dt' 'def' 'dt' 1 ((PARAMETER UNKNOWN-INTENT UNKNOWN-PROC UNKNOWN
IMPLICIT-SAVE 0 0) (REAL 4 0 0 REAL ()) 0 0 () (CONSTANT (REAL 4 0 0
REAL ()) 0 '0.a3d70a0@-2') () 0 () () () 0 0)
19 'dtl' 'def' 'dtl' 1 ((PARAMETER UNKNOWN-INTENT UNKNOWN-PROC UNKNOWN
IMPLICIT-SAVE 0 0) (REAL 4 0 0 REAL ()) 0 0 () (CONSTANT (REAL 4 0 0
REAL ()) 0 '0.f5c28f0@-2') () 0 () () () 0 0)
20 'dts' 'def' 'dts' 1 ((PARAMETER UNKNOWN-INTENT UNKNOWN-PROC UNKNOWN
IMPLICIT-SAVE 0 0) (REAL 4 0 0 REAL ()) 0 0 () (CONSTANT (REAL 4 0 0
REAL ()) 0 '0.51eb850@-2') () 0 () () () 0 0)
21 'dx' 'def' 'dx' 1 ((PARAMETER UNKNOWN-INTENT UNKNOWN-PROC UNKNOWN
IMPLICIT-SAVE 0 0) (REAL 4 0 0 REAL ()) 0 0 () (CONSTANT (REAL 4 0 0
REAL ()) 0 '0.3243f6c@-1') () 0 () () () 0 0)
22 'dy' 'def' 'dy' 1 ((PARAMETER UNKNOWN-INTENT UNKNOWN-PROC UNKNOWN
IMPLICIT-SAVE 0 0) (REAL 4 0 0 REAL ()) 0 0 () (CONSTANT (REAL 4 0 0
REAL ()) 0 '0.3243f6c@-1') () 0 () () () 0 0)
23 'filt' 'filt' 'filt' 1 ((MODULE UNKNOWN-INTENT UNKNOWN-PROC UNKNOWN
UNKNOWN 0 0) (UNKNOWN 0 0 0 UNKNOWN ()) 0 0 () () 0 () () () 0 0)
24 'gaussian' 'filt' 'gaussian' 1 ((PROCEDURE UNKNOWN-INTENT MODULE-PROC
DECL UNKNOWN 0 0 SUBROUTINE IMPLICIT_PURE) (UNKNOWN 0 0 0 UNKNOWN ()) 25
0 (26 27 28 29) () 0 () () () 0 0)
30 'hyper' 'def' 'hyper' 1 ((PARAMETER UNKNOWN-INTENT UNKNOWN-PROC
UNKNOWN IMPLICIT-SAVE 0 0) (REAL 4 0 0 REAL ()) 0 0 () (CONSTANT (REAL 4
0 0 REAL ()) 0 '0.1000000@1') () 0 () () () 0 0)
31 'ierr' 'def' 'ierr' 1 ((VARIABLE UNKNOWN-INTENT UNKNOWN-PROC UNKNOWN
IMPLICIT-SAVE 0 0) (INTEGER 4 0 0 INTEGER ()) 0 0 () () 0 () () () 0 0)
32 'ii' 'def' 'ii' 1 ((PARAMETER UNKNOWN-INTENT UNKNOWN-PROC UNKNOWN
IMPLICIT-SAVE 0 0) (COMPLEX 4 0 0 COMPLEX ()) 0 0 () (CONSTANT (COMPLEX
4 0 0 COMPLEX ()) 0 '0.0000000@0' '0.1000000@1') () 0 () () () 0 0)
33 'ind' 'def' 'ind' 1 ((VARIABLE UNKNOWN-INTENT UNKNOWN-PROC UNKNOWN
IMPLICIT-SAVE 0 0) (INTEGER 4 0 0 INTEGER ()) 0 0 () () 0 () () () 0 0)
34 'kc' 'def' 'kc' 1 ((PARAMETER UNKNOWN-INTENT UNKNOWN-PROC UNKNOWN
IMPLICIT-SAVE 0 0) (REAL 4 0 0 REAL ()) 0 0 () (CONSTANT (REAL 4 0 0
REAL ()) 0 '0.aa00000@2') () 0 () () () 0 0)
35 'lx' 'def' 'lx' 1 ((PARAMETER UNKNOWN-INTENT UNKNOWN-PROC UNKNOWN
IMPLICIT-SAVE 0 0) (REAL 4 0 0 REAL ()) 0 0 () (CONSTANT (REAL 4 0 0
REAL ()) 0 '0.6487ed8@1') () 0 () () () 0 0)
36 'ly' 'def' 'ly' 1 ((PARAMETER UNKNOWN-INTENT UNKNOWN-PROC UNKNOWN
IMPLICIT-SAVE 0 0) (REAL 4 0 0 REAL ()) 0 0 () (CONSTANT (REAL 4 0 0
REAL ()) 0 '0.6487ed8@1') () 0 () () () 0 0)
37 'n' 'def' 'n' 1 ((PARAMETER UNKNOWN-INTENT UNKNOWN-PROC UNKNOWN
IMPLICIT-SAVE 0 0) (INTEGER 4 0 0 INTEGER ()) 0 0 () (CONSTANT (INTEGER
4 0 0 INTEGER ()) 0 '512') () 0 () () () 0 0)
38 'n2i' 'def' 'n2i' 1 ((PARAMETER UNKNOWN-INTENT UNKNOWN-PROC UNKNOWN
IMPLICIT-SAVE 0 0) (REAL 4 0 0 REAL ()) 0 0 () (CONSTANT (REAL 4 0 0
REAL ()) 0 '0.4000000@-4') () 0 () () () 0 0)
39 'nproc' 'def' 'nproc' 1 ((VARIABLE UNKNOWN-INTENT UNKNOWN-PROC
UNKNOWN IMPLICIT-SAVE 0 0) (INTEGER 4 0 0 INTEGER ()) 0 0 () () 0 () ()
() 0 0)
40 'nt' 'def' 'nt' 1 ((PARAMETER UNKNOWN-INTENT UNKNOWN-PROC UNKNOWN
IMPLICIT-SAVE 0 0) (INTEGER 4 0 0 INTEGER ()) 0 0 () (CONSTANT (INTEGER
4 0 0 INTEGER ()) 0 '10000') () 0 () () () 0 0)
41 'pi' 'def' 'pi' 1 ((PARAMETER UNKNOWN-INTENT UNKNOWN-PROC UNKNOWN
IMPLICIT-SAVE 0 0) (REAL 4 0 0 REAL ()) 0 0 () (CONSTANT (REAL 4 0 0
REAL ()) 0 '0.3243f6c@1') () 0 () () () 0 0)
42 'plot_freq' 'def' 'plot_freq' 1 ((VARIABLE UNKNOWN-INTENT
UNKNOWN-PROC UNKNOWN IMPLICIT-SAVE 0 0) (INTEGER 4 0 0 INTEGER ()) 0 0 ()
() 0 () () () 0 0)
43 'rank' 'def' 'rank' 1 ((VARIABLE UNKNOWN-INTENT UNKNOWN-PROC UNKNOWN
IMPLICIT-SAVE 0 0) (INTEGER 4 0 0 INTEGER ()) 0 0 () () 0 () () () 0 0)
44 're' 'def' 're' 1 ((PARAMETER UNKNOWN-INTENT UNKNOWN-PROC UNKNOWN
IMPLICIT-SAVE 0 0) (REAL 4 0 0 REAL ()) 0 0 () (CONSTANT (REAL 4 0 0
REAL ()) 0 '0.b758b40@3') () 0 () () () 0 0)
45 'root' 'def' 'root' 1 ((PARAMETER UNKNOWN-INTENT UNKNOWN-PROC UNKNOWN
IMPLICIT-SAVE 0 0) (INTEGER 4 0 0 INTEGER ()) 0 0 () (CONSTANT (INTEGER
4 0 0 INTEGER ()) 0 '0') () 0 () () () 0 0)
46 'run_type' 'def' 'run_type' 1 ((VARIABLE UNKNOWN-INTENT UNKNOWN-PROC
UNKNOWN IMPLICIT-SAVE 0 0) (CHARACTER 1 0 0 CHARACTER ((CONSTANT (
INTEGER 4 0 0 INTEGER ()) 0 '4'))) 0 0 () () 0 () () () 0 0)
47 't' 'def' 't' 1 ((PARAMETER UNKNOWN-INTENT UNKNOWN-PROC UNKNOWN
IMPLICIT-SAVE 0 0) (REAL 4 0 0 REAL ()) 0 0 () (CONSTANT (REAL 4 0 0
REAL ()) 0 '0.1000000@1') () 0 () () () 0 0)
48 'telapsed' 'def' 'telapsed' 1 ((VARIABLE UNKNOWN-INTENT UNKNOWN-PROC
UNKNOWN IMPLICIT-SAVE 0 0) (REAL 4 0 0 REAL ()) 0 0 () () 0 () () () 0 0)
49 'tfinish' 'def' 'tfinish' 1 ((VARIABLE UNKNOWN-INTENT UNKNOWN-PROC
UNKNOWN IMPLICIT-SAVE 0 0) (REAL 4 0 0 REAL ()) 0 0 () () 0 () () () 0 0)
50 'theta' 'def' 'theta' 1 ((PARAMETER UNKNOWN-INTENT UNKNOWN-PROC
UNKNOWN IMPLICIT-SAVE 0 0) (REAL 4 0 0 REAL ()) 0 0 () (CONSTANT (REAL 4
0 0 REAL ()) 0 '0.8000000@0') () 0 () () () 0 0)
51 'tstart' 'def' 'tstart' 1 ((VARIABLE UNKNOWN-INTENT UNKNOWN-PROC
UNKNOWN IMPLICIT-SAVE 0 0) (REAL 4 0 0 REAL ()) 0 0 () () 0 () () () 0 0)
52 'tt' 'def' 'tt' 1 ((VARIABLE UNKNOWN-INTENT UNKNOWN-PROC UNKNOWN
IMPLICIT-SAVE 0 0) (INTEGER 4 0 0 INTEGER ()) 0 0 () () 0 () () () 0 0)
13 'uh' '' 'uh' 12 ((VARIABLE INOUT UNKNOWN-PROC UNKNOWN UNKNOWN 0 0
DIMENSION DUMMY) (COMPLEX 4 0 0 COMPLEX ()) 0 0 () (1 0 EXPLICIT (
CONSTANT (INTEGER 4 0 0 INTEGER ()) 0 '1') (CONSTANT (INTEGER 4 0 0
INTEGER ()) 0 '131072')) 0 () () () 0 0)
14 'vh' '' 'vh' 12 ((VARIABLE INOUT UNKNOWN-PROC UNKNOWN UNKNOWN 0 0
DIMENSION DUMMY) (COMPLEX 4 0 0 COMPLEX ()) 0 0 () (1 0 EXPLICIT (
CONSTANT (INTEGER 4 0 0 INTEGER ()) 0 '1') (CONSTANT (INTEGER 4 0 0
INTEGER ()) 0 '131072')) 0 () () () 0 0)
15 'ik' '' 'ik' 12 ((VARIABLE IN UNKNOWN-PROC UNKNOWN UNKNOWN 0 0
DIMENSION DUMMY) (COMPLEX 4 0 0 COMPLEX ()) 0 0 () (1 0 EXPLICIT (
CONSTANT (INTEGER 4 0 0 INTEGER ()) 0 '1') (CONSTANT (INTEGER 4 0 0
INTEGER ()) 0 '131072')) 0 () () () 0 0)
16 'il' '' 'il' 12 ((VARIABLE IN UNKNOWN-PROC UNKNOWN UNKNOWN 0 0
DIMENSION DUMMY) (COMPLEX 4 0 0 COMPLEX ()) 0 0 () (1 0 EXPLICIT (
CONSTANT (INTEGER 4 0 0 INTEGER ()) 0 '1') (CONSTANT (INTEGER 4 0 0
INTEGER ()) 0 '131072')) 0 () () () 0 0)
5 'uh' '' 'uh' 4 ((VARIABLE UNKNOWN-INTENT UNKNOWN-PROC UNKNOWN UNKNOWN
0 0 DUMMY) (REAL 4 0 0 REAL ()) 0 0 () () 0 () () () 0 0)
6 'vh' '' 'vh' 4 ((VARIABLE UNKNOWN-INTENT UNKNOWN-PROC UNKNOWN UNKNOWN
0 0 DUMMY) (REAL 4 0 0 REAL ()) 0 0 () () 0 () () () 0 0)
26 'uh' '' 'uh' 25 ((VARIABLE INOUT UNKNOWN-PROC UNKNOWN UNKNOWN 0 0
DIMENSION DUMMY) (COMPLEX 4 0 0 COMPLEX ()) 0 0 () (1 0 EXPLICIT (
CONSTANT (INTEGER 4 0 0 INTEGER ()) 0 '1') (CONSTANT (INTEGER 4 0 0
INTEGER ()) 0 '131072')) 0 () () () 0 0)
27 'vh' '' 'vh' 25 ((VARIABLE INOUT UNKNOWN-PROC UNKNOWN UNKNOWN 0 0
DIMENSION DUMMY) (COMPLEX 4 0 0 COMPLEX ()) 0 0 () (1 0 EXPLICIT (
CONSTANT (INTEGER 4 0 0 INTEGER ()) 0 '1') (CONSTANT (INTEGER 4 0 0
INTEGER ()) 0 '131072')) 0 () () () 0 0)
28 'ik' '' 'ik' 25 ((VARIABLE IN UNKNOWN-PROC UNKNOWN UNKNOWN 0 0
DIMENSION DUMMY) (COMPLEX 4 0 0 COMPLEX ()) 0 0 () (1 0 EXPLICIT (
CONSTANT (INTEGER 4 0 0 INTEGER ()) 0 '1') (CONSTANT (INTEGER 4 0 0
INTEGER ()) 0 '131072')) 0 () () () 0 0)
29 'il' '' 'il' 25 ((VARIABLE IN UNKNOWN-PROC UNKNOWN UNKNOWN 0 0
DIMENSION DUMMY) (COMPLEX 4 0 0 COMPLEX ()) 0 0 () (1 0 EXPLICIT (
CONSTANT (INTEGER 4 0 0 INTEGER ()) 0 '1') (CONSTANT (INTEGER 4 0 0
INTEGER ()) 0 '131072')) 0 () () () 0 0)
)

('__convert_i4_r4' 0 2 'box' 0 3 'bs' 0 7 'c' 0 8 'cs' 0 9 'cs2' 0 10
'cut_off' 0 11 'def' 0 17 'dt' 0 18 'dtl' 0 19 'dts' 0 20 'dx' 0 21 'dy'
0 22 'filt' 0 23 'gaussian' 0 24 'hyper' 0 30 'ierr' 0 31 'ii' 0 32 'ind'
0 33 'kc' 0 34 'lx' 0 35 'ly' 0 36 'n' 0 37 'n2i' 0 38 'nproc' 0 39 'nt'
0 40 'pi' 0 41 'plot_freq' 0 42 'rank' 0 43 're' 0 44 'root' 0 45
'run_type' 0 46 't' 0 47 'telapsed' 0 48 'tfinish' 0 49 'theta' 0 50
'tstart' 0 51 'tt' 0 52)
