GFORTRAN module version '6' created from init.f90 on Tue Apr 15 10:45:35 2014
MD5:ed4337c68ab93057d45ab6f1cb5bdf7a -- If you edit this, you'll get what you deserve.

(() () () () () () () () () () () () () () () () () () () () () () ()
() () () ())

()

()

()

()

()

(2 '__convert_i4_r4' '(intrinsic)' '__convert_i4_r4' 1 ((PROCEDURE
UNKNOWN-INTENT UNKNOWN-PROC UNKNOWN UNKNOWN 0 0 FUNCTION ELEMENTAL PURE)
(REAL 4 0 0 REAL ()) 0 0 () () 2 () () () 0 0)
3 '__convert_r4_c4' '(intrinsic)' '__convert_r4_c4' 1 ((PROCEDURE
UNKNOWN-INTENT UNKNOWN-PROC UNKNOWN UNKNOWN 0 0 FUNCTION ELEMENTAL PURE)
(COMPLEX 4 0 0 COMPLEX ()) 0 0 () () 3 () () () 0 0)
4 'ascr1' 'init' 'ascr1' 1 ((VARIABLE UNKNOWN-INTENT UNKNOWN-PROC
UNKNOWN IMPLICIT-SAVE 0 0 DIMENSION) (COMPLEX 4 0 0 COMPLEX ()) 0 0 () (
1 0 EXPLICIT (CONSTANT (INTEGER 4 0 0 INTEGER ()) 0 '1') (CONSTANT (
INTEGER 4 0 0 INTEGER ()) 0 '131072')) 0 () () () 0 0)
5 'ascr2' 'init' 'ascr2' 1 ((VARIABLE UNKNOWN-INTENT UNKNOWN-PROC
UNKNOWN IMPLICIT-SAVE 0 0 DIMENSION) (COMPLEX 4 0 0 COMPLEX ()) 0 0 () (
1 0 EXPLICIT (CONSTANT (INTEGER 4 0 0 INTEGER ()) 0 '1') (CONSTANT (
INTEGER 4 0 0 INTEGER ()) 0 '131072')) 0 () () () 0 0)
6 'ascr3' 'init' 'ascr3' 1 ((VARIABLE UNKNOWN-INTENT UNKNOWN-PROC
UNKNOWN IMPLICIT-SAVE 0 0 DIMENSION) (COMPLEX 4 0 0 COMPLEX ()) 0 0 () (
1 0 EXPLICIT (CONSTANT (INTEGER 4 0 0 INTEGER ()) 0 '1') (CONSTANT (
INTEGER 4 0 0 INTEGER ()) 0 '131072')) 0 () () () 0 0)
7 'ascr4' 'init' 'ascr4' 1 ((VARIABLE UNKNOWN-INTENT UNKNOWN-PROC
UNKNOWN IMPLICIT-SAVE 0 0 DIMENSION) (COMPLEX 4 0 0 COMPLEX ()) 0 0 () (
1 0 EXPLICIT (CONSTANT (INTEGER 4 0 0 INTEGER ()) 0 '1') (CONSTANT (
INTEGER 4 0 0 INTEGER ()) 0 '131072')) 0 () () () 0 0)
8 'bs' 'def' 'bs' 1 ((PARAMETER UNKNOWN-INTENT UNKNOWN-PROC UNKNOWN
IMPLICIT-SAVE 0 0) (INTEGER 4 0 0 INTEGER ()) 0 0 () (CONSTANT (INTEGER
4 0 0 INTEGER ()) 0 '131072') () 0 () () () 0 0)
9 'bscr5' 'init' 'bscr5' 1 ((VARIABLE UNKNOWN-INTENT UNKNOWN-PROC
UNKNOWN IMPLICIT-SAVE 0 0 DIMENSION) (COMPLEX 4 0 0 COMPLEX ()) 0 0 () (
1 0 EXPLICIT (CONSTANT (INTEGER 4 0 0 INTEGER ()) 0 '1') (CONSTANT (
INTEGER 4 0 0 INTEGER ()) 0 '131072')) 0 () () () 0 0)
10 'bscr6' 'init' 'bscr6' 1 ((VARIABLE UNKNOWN-INTENT UNKNOWN-PROC
UNKNOWN IMPLICIT-SAVE 0 0 DIMENSION) (COMPLEX 4 0 0 COMPLEX ()) 0 0 () (
1 0 EXPLICIT (CONSTANT (INTEGER 4 0 0 INTEGER ()) 0 '1') (CONSTANT (
INTEGER 4 0 0 INTEGER ()) 0 '131072')) 0 () () () 0 0)
11 'bscr7' 'init' 'bscr7' 1 ((VARIABLE UNKNOWN-INTENT UNKNOWN-PROC
UNKNOWN IMPLICIT-SAVE 0 0 DIMENSION) (COMPLEX 4 0 0 COMPLEX ()) 0 0 () (
1 0 EXPLICIT (CONSTANT (INTEGER 4 0 0 INTEGER ()) 0 '1') (CONSTANT (
INTEGER 4 0 0 INTEGER ()) 0 '131072')) 0 () () () 0 0)
12 'bscr8' 'init' 'bscr8' 1 ((VARIABLE UNKNOWN-INTENT UNKNOWN-PROC
UNKNOWN IMPLICIT-SAVE 0 0 DIMENSION) (COMPLEX 4 0 0 COMPLEX ()) 0 0 () (
1 0 EXPLICIT (CONSTANT (INTEGER 4 0 0 INTEGER ()) 0 '1') (CONSTANT (
INTEGER 4 0 0 INTEGER ()) 0 '131072')) 0 () () () 0 0)
13 'c' 'def' 'c' 1 ((PARAMETER UNKNOWN-INTENT UNKNOWN-PROC UNKNOWN
IMPLICIT-SAVE 0 0) (REAL 4 0 0 REAL ()) 0 0 () (CONSTANT (REAL 4 0 0
REAL ()) 0 '0.8000000@0') () 0 () () () 0 0)
14 'cs' 'def' 'cs' 1 ((PARAMETER UNKNOWN-INTENT UNKNOWN-PROC UNKNOWN
IMPLICIT-SAVE 0 0) (REAL 4 0 0 REAL ()) 0 0 () (CONSTANT (REAL 4 0 0
REAL ()) 0 '0.6666668@0') () 0 () () () 0 0)
15 'cs2' 'def' 'cs2' 1 ((PARAMETER UNKNOWN-INTENT UNKNOWN-PROC UNKNOWN
IMPLICIT-SAVE 0 0) (REAL 4 0 0 REAL ()) 0 0 () (CONSTANT (REAL 4 0 0
REAL ()) 0 '0.1944250@-3') () 0 () () () 0 0)
16 'd' 'init' 'd' 1 ((VARIABLE UNKNOWN-INTENT UNKNOWN-PROC UNKNOWN
IMPLICIT-SAVE 0 0 DIMENSION) (REAL 4 0 0 REAL ()) 0 0 () (1 0 EXPLICIT (
CONSTANT (INTEGER 4 0 0 INTEGER ()) 0 '1') (CONSTANT (INTEGER 4 0 0
INTEGER ()) 0 '131072')) 0 () () () 0 0)
17 'def' 'def' 'def' 1 ((MODULE UNKNOWN-INTENT UNKNOWN-PROC UNKNOWN
UNKNOWN 0 0) (UNKNOWN 0 0 0 UNKNOWN ()) 0 0 () () 0 () () () 0 0)
18 'dt' 'def' 'dt' 1 ((PARAMETER UNKNOWN-INTENT UNKNOWN-PROC UNKNOWN
IMPLICIT-SAVE 0 0) (REAL 4 0 0 REAL ()) 0 0 () (CONSTANT (REAL 4 0 0
REAL ()) 0 '0.a3d70a0@-2') () 0 () () () 0 0)
19 'dtl' 'def' 'dtl' 1 ((PARAMETER UNKNOWN-INTENT UNKNOWN-PROC UNKNOWN
IMPLICIT-SAVE 0 0) (REAL 4 0 0 REAL ()) 0 0 () (CONSTANT (REAL 4 0 0
REAL ()) 0 '0.f5c28f0@-2') () 0 () () () 0 0)
20 'dts' 'def' 'dts' 1 ((PARAMETER UNKNOWN-INTENT UNKNOWN-PROC UNKNOWN
IMPLICIT-SAVE 0 0) (REAL 4 0 0 REAL ()) 0 0 () (CONSTANT (REAL 4 0 0
REAL ()) 0 '0.51eb850@-2') () 0 () () () 0 0)
21 'dx' 'def' 'dx' 1 ((PARAMETER UNKNOWN-INTENT UNKNOWN-PROC UNKNOWN
IMPLICIT-SAVE 0 0) (REAL 4 0 0 REAL ()) 0 0 () (CONSTANT (REAL 4 0 0
REAL ()) 0 '0.3243f6c@-1') () 0 () () () 0 0)
22 'dy' 'def' 'dy' 1 ((PARAMETER UNKNOWN-INTENT UNKNOWN-PROC UNKNOWN
IMPLICIT-SAVE 0 0) (REAL 4 0 0 REAL ()) 0 0 () (CONSTANT (REAL 4 0 0
REAL ()) 0 '0.3243f6c@-1') () 0 () () () 0 0)
23 'fx' 'init' 'fx' 1 ((VARIABLE UNKNOWN-INTENT UNKNOWN-PROC UNKNOWN
IMPLICIT-SAVE 0 0 DIMENSION) (COMPLEX 4 0 0 COMPLEX ()) 0 0 () (1 0
EXPLICIT (CONSTANT (INTEGER 4 0 0 INTEGER ()) 0 '1') (CONSTANT (INTEGER
4 0 0 INTEGER ()) 0 '131072')) 0 () () () 0 0)
24 'fy' 'init' 'fy' 1 ((VARIABLE UNKNOWN-INTENT UNKNOWN-PROC UNKNOWN
IMPLICIT-SAVE 0 0 DIMENSION) (COMPLEX 4 0 0 COMPLEX ()) 0 0 () (1 0
EXPLICIT (CONSTANT (INTEGER 4 0 0 INTEGER ()) 0 '1') (CONSTANT (INTEGER
4 0 0 INTEGER ()) 0 '131072')) 0 () () () 0 0)
25 'hyper' 'def' 'hyper' 1 ((PARAMETER UNKNOWN-INTENT UNKNOWN-PROC
UNKNOWN IMPLICIT-SAVE 0 0) (REAL 4 0 0 REAL ()) 0 0 () (CONSTANT (REAL 4
0 0 REAL ()) 0 '0.1000000@1') () 0 () () () 0 0)
26 'ierr' 'def' 'ierr' 1 ((VARIABLE UNKNOWN-INTENT UNKNOWN-PROC UNKNOWN
IMPLICIT-SAVE 0 0) (INTEGER 4 0 0 INTEGER ()) 0 0 () () 0 () () () 0 0)
27 'ii' 'def' 'ii' 1 ((PARAMETER UNKNOWN-INTENT UNKNOWN-PROC UNKNOWN
IMPLICIT-SAVE 0 0) (COMPLEX 4 0 0 COMPLEX ()) 0 0 () (CONSTANT (COMPLEX
4 0 0 COMPLEX ()) 0 '0.0000000@0' '0.1000000@1') () 0 () () () 0 0)
28 'ik' 'init' 'ik' 1 ((VARIABLE UNKNOWN-INTENT UNKNOWN-PROC UNKNOWN
IMPLICIT-SAVE 0 0 DIMENSION) (COMPLEX 4 0 0 COMPLEX ()) 0 0 () (1 0
EXPLICIT (CONSTANT (INTEGER 4 0 0 INTEGER ()) 0 '1') (CONSTANT (INTEGER
4 0 0 INTEGER ()) 0 '131072')) 0 () () () 0 0)
29 'il' 'init' 'il' 1 ((VARIABLE UNKNOWN-INTENT UNKNOWN-PROC UNKNOWN
IMPLICIT-SAVE 0 0 DIMENSION) (COMPLEX 4 0 0 COMPLEX ()) 0 0 () (1 0
EXPLICIT (CONSTANT (INTEGER 4 0 0 INTEGER ()) 0 '1') (CONSTANT (INTEGER
4 0 0 INTEGER ()) 0 '131072')) 0 () () () 0 0)
30 'ind' 'def' 'ind' 1 ((VARIABLE UNKNOWN-INTENT UNKNOWN-PROC UNKNOWN
IMPLICIT-SAVE 0 0) (INTEGER 4 0 0 INTEGER ()) 0 0 () () 0 () () () 0 0)
31 'init' 'init' 'init' 1 ((MODULE UNKNOWN-INTENT UNKNOWN-PROC UNKNOWN
UNKNOWN 0 0) (UNKNOWN 0 0 0 UNKNOWN ()) 0 0 () () 0 () () () 0 0)
32 'initialization' 'init' 'initialization' 1 ((PROCEDURE UNKNOWN-INTENT
MODULE-PROC DECL UNKNOWN 0 0 SUBROUTINE) (UNKNOWN 0 0 0 UNKNOWN ()) 33 0
(34 35 36 37 38 39 40 41 42 43 44 45 46 47) () 0 () () () 0 0)
48 'k2' 'init' 'k2' 1 ((VARIABLE UNKNOWN-INTENT UNKNOWN-PROC UNKNOWN
IMPLICIT-SAVE 0 0 DIMENSION) (REAL 4 0 0 REAL ()) 0 0 () (1 0 EXPLICIT (
CONSTANT (INTEGER 4 0 0 INTEGER ()) 0 '1') (CONSTANT (INTEGER 4 0 0
INTEGER ()) 0 '131072')) 0 () () () 0 0)
49 'kc' 'def' 'kc' 1 ((PARAMETER UNKNOWN-INTENT UNKNOWN-PROC UNKNOWN
IMPLICIT-SAVE 0 0) (REAL 4 0 0 REAL ()) 0 0 () (CONSTANT (REAL 4 0 0
REAL ()) 0 '0.aa00000@2') () 0 () () () 0 0)
50 'lx' 'def' 'lx' 1 ((PARAMETER UNKNOWN-INTENT UNKNOWN-PROC UNKNOWN
IMPLICIT-SAVE 0 0) (REAL 4 0 0 REAL ()) 0 0 () (CONSTANT (REAL 4 0 0
REAL ()) 0 '0.6487ed8@1') () 0 () () () 0 0)
51 'ly' 'def' 'ly' 1 ((PARAMETER UNKNOWN-INTENT UNKNOWN-PROC UNKNOWN
IMPLICIT-SAVE 0 0) (REAL 4 0 0 REAL ()) 0 0 () (CONSTANT (REAL 4 0 0
REAL ()) 0 '0.6487ed8@1') () 0 () () () 0 0)
52 'n' 'def' 'n' 1 ((PARAMETER UNKNOWN-INTENT UNKNOWN-PROC UNKNOWN
IMPLICIT-SAVE 0 0) (INTEGER 4 0 0 INTEGER ()) 0 0 () (CONSTANT (INTEGER
4 0 0 INTEGER ()) 0 '512') () 0 () () () 0 0)
53 'n2i' 'def' 'n2i' 1 ((PARAMETER UNKNOWN-INTENT UNKNOWN-PROC UNKNOWN
IMPLICIT-SAVE 0 0) (REAL 4 0 0 REAL ()) 0 0 () (CONSTANT (REAL 4 0 0
REAL ()) 0 '0.4000000@-4') () 0 () () () 0 0)
54 'nproc' 'def' 'nproc' 1 ((VARIABLE UNKNOWN-INTENT UNKNOWN-PROC
UNKNOWN IMPLICIT-SAVE 0 0) (INTEGER 4 0 0 INTEGER ()) 0 0 () () 0 () ()
() 0 0)
55 'nt' 'def' 'nt' 1 ((PARAMETER UNKNOWN-INTENT UNKNOWN-PROC UNKNOWN
IMPLICIT-SAVE 0 0) (INTEGER 4 0 0 INTEGER ()) 0 0 () (CONSTANT (INTEGER
4 0 0 INTEGER ()) 0 '10000') () 0 () () () 0 0)
56 'omega' 'init' 'omega' 1 ((VARIABLE UNKNOWN-INTENT UNKNOWN-PROC
UNKNOWN IMPLICIT-SAVE 0 0 DIMENSION) (COMPLEX 4 0 0 COMPLEX ()) 0 0 () (
1 0 EXPLICIT (CONSTANT (INTEGER 4 0 0 INTEGER ()) 0 '1') (CONSTANT (
INTEGER 4 0 0 INTEGER ()) 0 '131072')) 0 () () () 0 0)
57 'p1' 'init' 'p1' 1 ((VARIABLE UNKNOWN-INTENT UNKNOWN-PROC UNKNOWN
IMPLICIT-SAVE 0 0 DIMENSION) (REAL 4 0 0 REAL ()) 0 0 () (1 0 EXPLICIT (
CONSTANT (INTEGER 4 0 0 INTEGER ()) 0 '1') (CONSTANT (INTEGER 4 0 0
INTEGER ()) 0 '131072')) 0 () () () 0 0)
58 'p2' 'init' 'p2' 1 ((VARIABLE UNKNOWN-INTENT UNKNOWN-PROC UNKNOWN
IMPLICIT-SAVE 0 0 DIMENSION) (REAL 4 0 0 REAL ()) 0 0 () (1 0 EXPLICIT (
CONSTANT (INTEGER 4 0 0 INTEGER ()) 0 '1') (CONSTANT (INTEGER 4 0 0
INTEGER ()) 0 '131072')) 0 () () () 0 0)
59 'p3' 'init' 'p3' 1 ((VARIABLE UNKNOWN-INTENT UNKNOWN-PROC UNKNOWN
IMPLICIT-SAVE 0 0 DIMENSION) (REAL 4 0 0 REAL ()) 0 0 () (1 0 EXPLICIT (
CONSTANT (INTEGER 4 0 0 INTEGER ()) 0 '1') (CONSTANT (INTEGER 4 0 0
INTEGER ()) 0 '131072')) 0 () () () 0 0)
60 'pi' 'def' 'pi' 1 ((PARAMETER UNKNOWN-INTENT UNKNOWN-PROC UNKNOWN
IMPLICIT-SAVE 0 0) (REAL 4 0 0 REAL ()) 0 0 () (CONSTANT (REAL 4 0 0
REAL ()) 0 '0.3243f6c@1') () 0 () () () 0 0)
61 'plot_freq' 'def' 'plot_freq' 1 ((VARIABLE UNKNOWN-INTENT
UNKNOWN-PROC UNKNOWN IMPLICIT-SAVE 0 0) (INTEGER 4 0 0 INTEGER ()) 0 0 ()
() 0 () () () 0 0)
62 'rank' 'def' 'rank' 1 ((VARIABLE UNKNOWN-INTENT UNKNOWN-PROC UNKNOWN
IMPLICIT-SAVE 0 0) (INTEGER 4 0 0 INTEGER ()) 0 0 () () 0 () () () 0 0)
63 're' 'def' 're' 1 ((PARAMETER UNKNOWN-INTENT UNKNOWN-PROC UNKNOWN
IMPLICIT-SAVE 0 0) (REAL 4 0 0 REAL ()) 0 0 () (CONSTANT (REAL 4 0 0
REAL ()) 0 '0.b758b40@3') () 0 () () () 0 0)
64 'root' 'def' 'root' 1 ((PARAMETER UNKNOWN-INTENT UNKNOWN-PROC UNKNOWN
IMPLICIT-SAVE 0 0) (INTEGER 4 0 0 INTEGER ()) 0 0 () (CONSTANT (INTEGER
4 0 0 INTEGER ()) 0 '0') () 0 () () () 0 0)
65 'run_type' 'def' 'run_type' 1 ((VARIABLE UNKNOWN-INTENT UNKNOWN-PROC
UNKNOWN IMPLICIT-SAVE 0 0) (CHARACTER 1 0 0 CHARACTER ((CONSTANT (
INTEGER 4 0 0 INTEGER ()) 0 '4'))) 0 0 () () 0 () () () 0 0)
66 't' 'def' 't' 1 ((PARAMETER UNKNOWN-INTENT UNKNOWN-PROC UNKNOWN
IMPLICIT-SAVE 0 0) (REAL 4 0 0 REAL ()) 0 0 () (CONSTANT (REAL 4 0 0
REAL ()) 0 '0.1000000@1') () 0 () () () 0 0)
67 'telapsed' 'def' 'telapsed' 1 ((VARIABLE UNKNOWN-INTENT UNKNOWN-PROC
UNKNOWN IMPLICIT-SAVE 0 0) (REAL 4 0 0 REAL ()) 0 0 () () 0 () () () 0 0)
68 'tfinish' 'def' 'tfinish' 1 ((VARIABLE UNKNOWN-INTENT UNKNOWN-PROC
UNKNOWN IMPLICIT-SAVE 0 0) (REAL 4 0 0 REAL ()) 0 0 () () 0 () () () 0 0)
69 'theta' 'def' 'theta' 1 ((PARAMETER UNKNOWN-INTENT UNKNOWN-PROC
UNKNOWN IMPLICIT-SAVE 0 0) (REAL 4 0 0 REAL ()) 0 0 () (CONSTANT (REAL 4
0 0 REAL ()) 0 '0.8000000@0') () 0 () () () 0 0)
70 'tstart' 'def' 'tstart' 1 ((VARIABLE UNKNOWN-INTENT UNKNOWN-PROC
UNKNOWN IMPLICIT-SAVE 0 0) (REAL 4 0 0 REAL ()) 0 0 () () 0 () () () 0 0)
71 'tt' 'def' 'tt' 1 ((VARIABLE UNKNOWN-INTENT UNKNOWN-PROC UNKNOWN
IMPLICIT-SAVE 0 0) (INTEGER 4 0 0 INTEGER ()) 0 0 () () 0 () () () 0 0)
72 'u' 'init' 'u' 1 ((VARIABLE UNKNOWN-INTENT UNKNOWN-PROC UNKNOWN
IMPLICIT-SAVE 0 0 DIMENSION) (COMPLEX 4 0 0 COMPLEX ()) 0 0 () (1 0
EXPLICIT (CONSTANT (INTEGER 4 0 0 INTEGER ()) 0 '1') (CONSTANT (INTEGER
4 0 0 INTEGER ()) 0 '131072')) 0 () () () 0 0)
73 'v' 'init' 'v' 1 ((VARIABLE UNKNOWN-INTENT UNKNOWN-PROC UNKNOWN
IMPLICIT-SAVE 0 0 DIMENSION) (COMPLEX 4 0 0 COMPLEX ()) 0 0 () (1 0
EXPLICIT (CONSTANT (INTEGER 4 0 0 INTEGER ()) 0 '1') (CONSTANT (INTEGER
4 0 0 INTEGER ()) 0 '131072')) 0 () () () 0 0)
74 'vt' 'init' 'vt' 1 ((VARIABLE UNKNOWN-INTENT UNKNOWN-PROC UNKNOWN
IMPLICIT-SAVE 0 0 DIMENSION) (COMPLEX 4 0 0 COMPLEX ()) 0 0 () (1 0
EXPLICIT (CONSTANT (INTEGER 4 0 0 INTEGER ()) 0 '1') (CONSTANT (INTEGER
4 0 0 INTEGER ()) 0 '131072')) 0 () () () 0 0)
75 'wave_num' 'init' 'wave_num' 1 ((PROCEDURE UNKNOWN-INTENT MODULE-PROC
DECL UNKNOWN 0 0 DIMENSION FUNCTION ALWAYS_EXPLICIT) (REAL 4 0 0 REAL ())
76 0 (77) (1 0 EXPLICIT (CONSTANT (INTEGER 4 0 0 INTEGER ()) 0 '1') (
VARIABLE (INTEGER 4 0 0 INTEGER ()) 0 77 ())) 75 () () () 0 0)
78 'x' 'init' 'x' 1 ((VARIABLE UNKNOWN-INTENT UNKNOWN-PROC UNKNOWN
IMPLICIT-SAVE 0 0 DIMENSION) (REAL 4 0 0 REAL ()) 0 0 () (1 0 EXPLICIT (
CONSTANT (INTEGER 4 0 0 INTEGER ()) 0 '1') (CONSTANT (INTEGER 4 0 0
INTEGER ()) 0 '131072')) 0 () () () 0 0)
79 'xgrid' 'init' 'xgrid' 1 ((PROCEDURE UNKNOWN-INTENT MODULE-PROC DECL
UNKNOWN 0 0 DIMENSION FUNCTION ALWAYS_EXPLICIT) (REAL 4 0 0 REAL ()) 80
0 (81) (1 0 EXPLICIT (CONSTANT (INTEGER 4 0 0 INTEGER ()) 0 '1') (
VARIABLE (INTEGER 4 0 0 INTEGER ()) 0 81 ())) 79 () () () 0 0)
82 'y' 'init' 'y' 1 ((VARIABLE UNKNOWN-INTENT UNKNOWN-PROC UNKNOWN
IMPLICIT-SAVE 0 0 DIMENSION) (REAL 4 0 0 REAL ()) 0 0 () (1 0 EXPLICIT (
CONSTANT (INTEGER 4 0 0 INTEGER ()) 0 '1') (CONSTANT (INTEGER 4 0 0
INTEGER ()) 0 '131072')) 0 () () () 0 0)
83 'ygrid' 'init' 'ygrid' 1 ((PROCEDURE UNKNOWN-INTENT MODULE-PROC DECL
UNKNOWN 0 0 DIMENSION FUNCTION ALWAYS_EXPLICIT) (REAL 4 0 0 REAL ()) 84
0 (85) (1 0 EXPLICIT (CONSTANT (INTEGER 4 0 0 INTEGER ()) 0 '1') (
VARIABLE (INTEGER 4 0 0 INTEGER ()) 0 85 ())) 83 () () () 0 0)
34 'u' '' 'u' 33 ((VARIABLE INOUT UNKNOWN-PROC UNKNOWN UNKNOWN 0 0
DIMENSION DUMMY) (COMPLEX 4 0 0 COMPLEX ()) 0 0 () (1 0 EXPLICIT (
CONSTANT (INTEGER 4 0 0 INTEGER ()) 0 '1') (CONSTANT (INTEGER 4 0 0
INTEGER ()) 0 '131072')) 0 () () () 0 0)
35 'v' '' 'v' 33 ((VARIABLE INOUT UNKNOWN-PROC UNKNOWN UNKNOWN 0 0
DIMENSION DUMMY) (COMPLEX 4 0 0 COMPLEX ()) 0 0 () (1 0 EXPLICIT (
CONSTANT (INTEGER 4 0 0 INTEGER ()) 0 '1') (CONSTANT (INTEGER 4 0 0
INTEGER ()) 0 '131072')) 0 () () () 0 0)
36 'vt' '' 'vt' 33 ((VARIABLE INOUT UNKNOWN-PROC UNKNOWN UNKNOWN 0 0
DIMENSION DUMMY) (COMPLEX 4 0 0 COMPLEX ()) 0 0 () (1 0 EXPLICIT (
CONSTANT (INTEGER 4 0 0 INTEGER ()) 0 '1') (CONSTANT (INTEGER 4 0 0
INTEGER ()) 0 '131072')) 0 () () () 0 0)
37 'fx' '' 'fx' 33 ((VARIABLE INOUT UNKNOWN-PROC UNKNOWN UNKNOWN 0 0
DIMENSION DUMMY) (COMPLEX 4 0 0 COMPLEX ()) 0 0 () (1 0 EXPLICIT (
CONSTANT (INTEGER 4 0 0 INTEGER ()) 0 '1') (CONSTANT (INTEGER 4 0 0
INTEGER ()) 0 '131072')) 0 () () () 0 0)
38 'fy' '' 'fy' 33 ((VARIABLE INOUT UNKNOWN-PROC UNKNOWN UNKNOWN 0 0
DIMENSION DUMMY) (COMPLEX 4 0 0 COMPLEX ()) 0 0 () (1 0 EXPLICIT (
CONSTANT (INTEGER 4 0 0 INTEGER ()) 0 '1') (CONSTANT (INTEGER 4 0 0
INTEGER ()) 0 '131072')) 0 () () () 0 0)
39 'ik' '' 'ik' 33 ((VARIABLE INOUT UNKNOWN-PROC UNKNOWN UNKNOWN 0 0
DIMENSION DUMMY) (COMPLEX 4 0 0 COMPLEX ()) 0 0 () (1 0 EXPLICIT (
CONSTANT (INTEGER 4 0 0 INTEGER ()) 0 '1') (CONSTANT (INTEGER 4 0 0
INTEGER ()) 0 '131072')) 0 () () () 0 0)
40 'il' '' 'il' 33 ((VARIABLE INOUT UNKNOWN-PROC UNKNOWN UNKNOWN 0 0
DIMENSION DUMMY) (COMPLEX 4 0 0 COMPLEX ()) 0 0 () (1 0 EXPLICIT (
CONSTANT (INTEGER 4 0 0 INTEGER ()) 0 '1') (CONSTANT (INTEGER 4 0 0
INTEGER ()) 0 '131072')) 0 () () () 0 0)
41 'k2' '' 'k2' 33 ((VARIABLE INOUT UNKNOWN-PROC UNKNOWN UNKNOWN 0 0
DIMENSION DUMMY) (REAL 4 0 0 REAL ()) 0 0 () (1 0 EXPLICIT (CONSTANT (
INTEGER 4 0 0 INTEGER ()) 0 '1') (CONSTANT (INTEGER 4 0 0 INTEGER ()) 0
'131072')) 0 () () () 0 0)
42 'x' '' 'x' 33 ((VARIABLE INOUT UNKNOWN-PROC UNKNOWN UNKNOWN 0 0
DIMENSION DUMMY) (REAL 4 0 0 REAL ()) 0 0 () (1 0 EXPLICIT (CONSTANT (
INTEGER 4 0 0 INTEGER ()) 0 '1') (CONSTANT (INTEGER 4 0 0 INTEGER ()) 0
'131072')) 0 () () () 0 0)
43 'y' '' 'y' 33 ((VARIABLE INOUT UNKNOWN-PROC UNKNOWN UNKNOWN 0 0
DIMENSION DUMMY) (REAL 4 0 0 REAL ()) 0 0 () (1 0 EXPLICIT (CONSTANT (
INTEGER 4 0 0 INTEGER ()) 0 '1') (CONSTANT (INTEGER 4 0 0 INTEGER ()) 0
'131072')) 0 () () () 0 0)
44 'p1' '' 'p1' 33 ((VARIABLE INOUT UNKNOWN-PROC UNKNOWN UNKNOWN 0 0
DIMENSION DUMMY) (REAL 4 0 0 REAL ()) 0 0 () (1 0 EXPLICIT (CONSTANT (
INTEGER 4 0 0 INTEGER ()) 0 '1') (CONSTANT (INTEGER 4 0 0 INTEGER ()) 0
'131072')) 0 () () () 0 0)
45 'p2' '' 'p2' 33 ((VARIABLE INOUT UNKNOWN-PROC UNKNOWN UNKNOWN 0 0
DIMENSION DUMMY) (REAL 4 0 0 REAL ()) 0 0 () (1 0 EXPLICIT (CONSTANT (
INTEGER 4 0 0 INTEGER ()) 0 '1') (CONSTANT (INTEGER 4 0 0 INTEGER ()) 0
'131072')) 0 () () () 0 0)
46 'p3' '' 'p3' 33 ((VARIABLE INOUT UNKNOWN-PROC UNKNOWN UNKNOWN 0 0
DIMENSION DUMMY) (REAL 4 0 0 REAL ()) 0 0 () (1 0 EXPLICIT (CONSTANT (
INTEGER 4 0 0 INTEGER ()) 0 '1') (CONSTANT (INTEGER 4 0 0 INTEGER ()) 0
'131072')) 0 () () () 0 0)
47 'd' '' 'd' 33 ((VARIABLE INOUT UNKNOWN-PROC UNKNOWN UNKNOWN 0 0
DIMENSION DUMMY) (REAL 4 0 0 REAL ()) 0 0 () (1 0 EXPLICIT (CONSTANT (
INTEGER 4 0 0 INTEGER ()) 0 '1') (CONSTANT (INTEGER 4 0 0 INTEGER ()) 0
'131072')) 0 () () () 0 0)
77 's' '' 's' 76 ((VARIABLE UNKNOWN-INTENT UNKNOWN-PROC UNKNOWN UNKNOWN
0 0 DUMMY) (INTEGER 4 0 0 INTEGER ()) 0 0 () () 0 () () () 0 0)
81 's' '' 's' 80 ((VARIABLE UNKNOWN-INTENT UNKNOWN-PROC UNKNOWN UNKNOWN
0 0 DUMMY) (INTEGER 4 0 0 INTEGER ()) 0 0 () () 0 () () () 0 0)
85 's' '' 's' 84 ((VARIABLE UNKNOWN-INTENT UNKNOWN-PROC UNKNOWN UNKNOWN
0 0 DUMMY) (INTEGER 4 0 0 INTEGER ()) 0 0 () () 0 () () () 0 0)
)

('__convert_i4_r4' 0 2 '__convert_r4_c4' 0 3 'ascr1' 0 4 'ascr2' 0 5
'ascr3' 0 6 'ascr4' 0 7 'bs' 0 8 'bscr5' 0 9 'bscr6' 0 10 'bscr7' 0 11
'bscr8' 0 12 'c' 0 13 'cs' 0 14 'cs2' 0 15 'd' 0 16 'def' 0 17 'dt' 0 18
'dtl' 0 19 'dts' 0 20 'dx' 0 21 'dy' 0 22 'fx' 0 23 'fy' 0 24 'hyper' 0
25 'ierr' 0 26 'ii' 0 27 'ik' 0 28 'il' 0 29 'ind' 0 30 'init' 0 31
'initialization' 0 32 'k2' 0 48 'kc' 0 49 'lx' 0 50 'ly' 0 51 'n' 0 52
'n2i' 0 53 'nproc' 0 54 'nt' 0 55 'omega' 0 56 'p1' 0 57 'p2' 0 58 'p3'
0 59 'pi' 0 60 'plot_freq' 0 61 'rank' 0 62 're' 0 63 'root' 0 64
'run_type' 0 65 't' 0 66 'telapsed' 0 67 'tfinish' 0 68 'theta' 0 69
'tstart' 0 70 'tt' 0 71 'u' 0 72 'v' 0 73 'vt' 0 74 'wave_num' 0 75 'x'
0 78 'xgrid' 0 79 'y' 0 82 'ygrid' 0 83)
