GFORTRAN module version '6' created from press.f90 on Tue Apr 15 10:45:36 2014
MD5:112b74fe6213d8669a8579583cb45be8 -- If you edit this, you'll get what you deserve.

(() () () () () () () () () () () () () () () () () () () () () () ()
() () () ())

()

()

()

()

()

(2 '__convert_i4_r4' '(intrinsic)' '__convert_i4_r4' 1 ((PROCEDURE
UNKNOWN-INTENT UNKNOWN-PROC UNKNOWN UNKNOWN 0 0 FUNCTION ELEMENTAL PURE)
(REAL 4 0 0 REAL ()) 0 0 () () 2 () () () 0 0)
3 'bs' 'def' 'bs' 1 ((PARAMETER UNKNOWN-INTENT UNKNOWN-PROC UNKNOWN
IMPLICIT-SAVE 0 0) (INTEGER 4 0 0 INTEGER ()) 0 0 () (CONSTANT (INTEGER
4 0 0 INTEGER ()) 0 '131072') () 0 () () () 0 0)
4 'c' 'def' 'c' 1 ((PARAMETER UNKNOWN-INTENT UNKNOWN-PROC UNKNOWN
IMPLICIT-SAVE 0 0) (REAL 4 0 0 REAL ()) 0 0 () (CONSTANT (REAL 4 0 0
REAL ()) 0 '0.8000000@0') () 0 () () () 0 0)
5 'cs' 'def' 'cs' 1 ((PARAMETER UNKNOWN-INTENT UNKNOWN-PROC UNKNOWN
IMPLICIT-SAVE 0 0) (REAL 4 0 0 REAL ()) 0 0 () (CONSTANT (REAL 4 0 0
REAL ()) 0 '0.6666668@0') () 0 () () () 0 0)
6 'cs2' 'def' 'cs2' 1 ((PARAMETER UNKNOWN-INTENT UNKNOWN-PROC UNKNOWN
IMPLICIT-SAVE 0 0) (REAL 4 0 0 REAL ()) 0 0 () (CONSTANT (REAL 4 0 0
REAL ()) 0 '0.1944250@-3') () 0 () () () 0 0)
7 'def' 'def' 'def' 1 ((MODULE UNKNOWN-INTENT UNKNOWN-PROC UNKNOWN
UNKNOWN 0 0) (UNKNOWN 0 0 0 UNKNOWN ()) 0 0 () () 0 () () () 0 0)
8 'dt' 'def' 'dt' 1 ((PARAMETER UNKNOWN-INTENT UNKNOWN-PROC UNKNOWN
IMPLICIT-SAVE 0 0) (REAL 4 0 0 REAL ()) 0 0 () (CONSTANT (REAL 4 0 0
REAL ()) 0 '0.a3d70a0@-2') () 0 () () () 0 0)
9 'dtl' 'def' 'dtl' 1 ((PARAMETER UNKNOWN-INTENT UNKNOWN-PROC UNKNOWN
IMPLICIT-SAVE 0 0) (REAL 4 0 0 REAL ()) 0 0 () (CONSTANT (REAL 4 0 0
REAL ()) 0 '0.f5c28f0@-2') () 0 () () () 0 0)
10 'dts' 'def' 'dts' 1 ((PARAMETER UNKNOWN-INTENT UNKNOWN-PROC UNKNOWN
IMPLICIT-SAVE 0 0) (REAL 4 0 0 REAL ()) 0 0 () (CONSTANT (REAL 4 0 0
REAL ()) 0 '0.51eb850@-2') () 0 () () () 0 0)
11 'dx' 'def' 'dx' 1 ((PARAMETER UNKNOWN-INTENT UNKNOWN-PROC UNKNOWN
IMPLICIT-SAVE 0 0) (REAL 4 0 0 REAL ()) 0 0 () (CONSTANT (REAL 4 0 0
REAL ()) 0 '0.3243f6c@-1') () 0 () () () 0 0)
12 'dy' 'def' 'dy' 1 ((PARAMETER UNKNOWN-INTENT UNKNOWN-PROC UNKNOWN
IMPLICIT-SAVE 0 0) (REAL 4 0 0 REAL ()) 0 0 () (CONSTANT (REAL 4 0 0
REAL ()) 0 '0.3243f6c@-1') () 0 () () () 0 0)
13 'hyper' 'def' 'hyper' 1 ((PARAMETER UNKNOWN-INTENT UNKNOWN-PROC
UNKNOWN IMPLICIT-SAVE 0 0) (REAL 4 0 0 REAL ()) 0 0 () (CONSTANT (REAL 4
0 0 REAL ()) 0 '0.1000000@1') () 0 () () () 0 0)
14 'ierr' 'def' 'ierr' 1 ((VARIABLE UNKNOWN-INTENT UNKNOWN-PROC UNKNOWN
IMPLICIT-SAVE 0 0) (INTEGER 4 0 0 INTEGER ()) 0 0 () () 0 () () () 0 0)
15 'ii' 'def' 'ii' 1 ((PARAMETER UNKNOWN-INTENT UNKNOWN-PROC UNKNOWN
IMPLICIT-SAVE 0 0) (COMPLEX 4 0 0 COMPLEX ()) 0 0 () (CONSTANT (COMPLEX
4 0 0 COMPLEX ()) 0 '0.0000000@0' '0.1000000@1') () 0 () () () 0 0)
16 'ind' 'def' 'ind' 1 ((VARIABLE UNKNOWN-INTENT UNKNOWN-PROC UNKNOWN
IMPLICIT-SAVE 0 0) (INTEGER 4 0 0 INTEGER ()) 0 0 () () 0 () () () 0 0)
17 'kc' 'def' 'kc' 1 ((PARAMETER UNKNOWN-INTENT UNKNOWN-PROC UNKNOWN
IMPLICIT-SAVE 0 0) (REAL 4 0 0 REAL ()) 0 0 () (CONSTANT (REAL 4 0 0
REAL ()) 0 '0.aa00000@2') () 0 () () () 0 0)
18 'lx' 'def' 'lx' 1 ((PARAMETER UNKNOWN-INTENT UNKNOWN-PROC UNKNOWN
IMPLICIT-SAVE 0 0) (REAL 4 0 0 REAL ()) 0 0 () (CONSTANT (REAL 4 0 0
REAL ()) 0 '0.6487ed8@1') () 0 () () () 0 0)
19 'ly' 'def' 'ly' 1 ((PARAMETER UNKNOWN-INTENT UNKNOWN-PROC UNKNOWN
IMPLICIT-SAVE 0 0) (REAL 4 0 0 REAL ()) 0 0 () (CONSTANT (REAL 4 0 0
REAL ()) 0 '0.6487ed8@1') () 0 () () () 0 0)
20 'n' 'def' 'n' 1 ((PARAMETER UNKNOWN-INTENT UNKNOWN-PROC UNKNOWN
IMPLICIT-SAVE 0 0) (INTEGER 4 0 0 INTEGER ()) 0 0 () (CONSTANT (INTEGER
4 0 0 INTEGER ()) 0 '512') () 0 () () () 0 0)
21 'n2i' 'def' 'n2i' 1 ((PARAMETER UNKNOWN-INTENT UNKNOWN-PROC UNKNOWN
IMPLICIT-SAVE 0 0) (REAL 4 0 0 REAL ()) 0 0 () (CONSTANT (REAL 4 0 0
REAL ()) 0 '0.4000000@-4') () 0 () () () 0 0)
22 'nproc' 'def' 'nproc' 1 ((VARIABLE UNKNOWN-INTENT UNKNOWN-PROC
UNKNOWN IMPLICIT-SAVE 0 0) (INTEGER 4 0 0 INTEGER ()) 0 0 () () 0 () ()
() 0 0)
23 'nt' 'def' 'nt' 1 ((PARAMETER UNKNOWN-INTENT UNKNOWN-PROC UNKNOWN
IMPLICIT-SAVE 0 0) (INTEGER 4 0 0 INTEGER ()) 0 0 () (CONSTANT (INTEGER
4 0 0 INTEGER ()) 0 '10000') () 0 () () () 0 0)
24 'pi' 'def' 'pi' 1 ((PARAMETER UNKNOWN-INTENT UNKNOWN-PROC UNKNOWN
IMPLICIT-SAVE 0 0) (REAL 4 0 0 REAL ()) 0 0 () (CONSTANT (REAL 4 0 0
REAL ()) 0 '0.3243f6c@1') () 0 () () () 0 0)
25 'plot_freq' 'def' 'plot_freq' 1 ((VARIABLE UNKNOWN-INTENT
UNKNOWN-PROC UNKNOWN IMPLICIT-SAVE 0 0) (INTEGER 4 0 0 INTEGER ()) 0 0 ()
() 0 () () () 0 0)
26 'press' 'press' 'press' 1 ((MODULE UNKNOWN-INTENT UNKNOWN-PROC
UNKNOWN UNKNOWN 0 0) (UNKNOWN 0 0 0 UNKNOWN ()) 0 0 () () 0 () () () 0 0)
27 'pressure_proj' 'press' 'pressure_proj' 1 ((PROCEDURE UNKNOWN-INTENT
MODULE-PROC DECL UNKNOWN 0 0 SUBROUTINE IMPLICIT_PURE) (UNKNOWN 0 0 0
UNKNOWN ()) 28 0 (29 30 31 32 33) () 0 () () () 0 0)
34 'rank' 'def' 'rank' 1 ((VARIABLE UNKNOWN-INTENT UNKNOWN-PROC UNKNOWN
IMPLICIT-SAVE 0 0) (INTEGER 4 0 0 INTEGER ()) 0 0 () () 0 () () () 0 0)
35 're' 'def' 're' 1 ((PARAMETER UNKNOWN-INTENT UNKNOWN-PROC UNKNOWN
IMPLICIT-SAVE 0 0) (REAL 4 0 0 REAL ()) 0 0 () (CONSTANT (REAL 4 0 0
REAL ()) 0 '0.b758b40@3') () 0 () () () 0 0)
36 'root' 'def' 'root' 1 ((PARAMETER UNKNOWN-INTENT UNKNOWN-PROC UNKNOWN
IMPLICIT-SAVE 0 0) (INTEGER 4 0 0 INTEGER ()) 0 0 () (CONSTANT (INTEGER
4 0 0 INTEGER ()) 0 '0') () 0 () () () 0 0)
37 'run_type' 'def' 'run_type' 1 ((VARIABLE UNKNOWN-INTENT UNKNOWN-PROC
UNKNOWN IMPLICIT-SAVE 0 0) (CHARACTER 1 0 0 CHARACTER ((CONSTANT (
INTEGER 4 0 0 INTEGER ()) 0 '4'))) 0 0 () () 0 () () () 0 0)
38 't' 'def' 't' 1 ((PARAMETER UNKNOWN-INTENT UNKNOWN-PROC UNKNOWN
IMPLICIT-SAVE 0 0) (REAL 4 0 0 REAL ()) 0 0 () (CONSTANT (REAL 4 0 0
REAL ()) 0 '0.1000000@1') () 0 () () () 0 0)
39 'telapsed' 'def' 'telapsed' 1 ((VARIABLE UNKNOWN-INTENT UNKNOWN-PROC
UNKNOWN IMPLICIT-SAVE 0 0) (REAL 4 0 0 REAL ()) 0 0 () () 0 () () () 0 0)
40 'tfinish' 'def' 'tfinish' 1 ((VARIABLE UNKNOWN-INTENT UNKNOWN-PROC
UNKNOWN IMPLICIT-SAVE 0 0) (REAL 4 0 0 REAL ()) 0 0 () () 0 () () () 0 0)
41 'theta' 'def' 'theta' 1 ((PARAMETER UNKNOWN-INTENT UNKNOWN-PROC
UNKNOWN IMPLICIT-SAVE 0 0) (REAL 4 0 0 REAL ()) 0 0 () (CONSTANT (REAL 4
0 0 REAL ()) 0 '0.8000000@0') () 0 () () () 0 0)
42 'tstart' 'def' 'tstart' 1 ((VARIABLE UNKNOWN-INTENT UNKNOWN-PROC
UNKNOWN IMPLICIT-SAVE 0 0) (REAL 4 0 0 REAL ()) 0 0 () () 0 () () () 0 0)
43 'tt' 'def' 'tt' 1 ((VARIABLE UNKNOWN-INTENT UNKNOWN-PROC UNKNOWN
IMPLICIT-SAVE 0 0) (INTEGER 4 0 0 INTEGER ()) 0 0 () () 0 () () () 0 0)
29 'uh' '' 'uh' 28 ((VARIABLE INOUT UNKNOWN-PROC UNKNOWN UNKNOWN 0 0
DIMENSION DUMMY) (COMPLEX 4 0 0 COMPLEX ()) 0 0 () (1 0 EXPLICIT (
CONSTANT (INTEGER 4 0 0 INTEGER ()) 0 '1') (CONSTANT (INTEGER 4 0 0
INTEGER ()) 0 '131072')) 0 () () () 0 0)
30 'vh' '' 'vh' 28 ((VARIABLE INOUT UNKNOWN-PROC UNKNOWN UNKNOWN 0 0
DIMENSION DUMMY) (COMPLEX 4 0 0 COMPLEX ()) 0 0 () (1 0 EXPLICIT (
CONSTANT (INTEGER 4 0 0 INTEGER ()) 0 '1') (CONSTANT (INTEGER 4 0 0
INTEGER ()) 0 '131072')) 0 () () () 0 0)
31 'p1' '' 'p1' 28 ((VARIABLE IN UNKNOWN-PROC UNKNOWN UNKNOWN 0 0
DIMENSION DUMMY) (REAL 4 0 0 REAL ()) 0 0 () (1 0 EXPLICIT (CONSTANT (
INTEGER 4 0 0 INTEGER ()) 0 '1') (CONSTANT (INTEGER 4 0 0 INTEGER ()) 0
'131072')) 0 () () () 0 0)
32 'p2' '' 'p2' 28 ((VARIABLE IN UNKNOWN-PROC UNKNOWN UNKNOWN 0 0
DIMENSION DUMMY) (REAL 4 0 0 REAL ()) 0 0 () (1 0 EXPLICIT (CONSTANT (
INTEGER 4 0 0 INTEGER ()) 0 '1') (CONSTANT (INTEGER 4 0 0 INTEGER ()) 0
'131072')) 0 () () () 0 0)
33 'p3' '' 'p3' 28 ((VARIABLE IN UNKNOWN-PROC UNKNOWN UNKNOWN 0 0
DIMENSION DUMMY) (REAL 4 0 0 REAL ()) 0 0 () (1 0 EXPLICIT (CONSTANT (
INTEGER 4 0 0 INTEGER ()) 0 '1') (CONSTANT (INTEGER 4 0 0 INTEGER ()) 0
'131072')) 0 () () () 0 0)
)

('__convert_i4_r4' 0 2 'bs' 0 3 'c' 0 4 'cs' 0 5 'cs2' 0 6 'def' 0 7 'dt'
0 8 'dtl' 0 9 'dts' 0 10 'dx' 0 11 'dy' 0 12 'hyper' 0 13 'ierr' 0 14 'ii'
0 15 'ind' 0 16 'kc' 0 17 'lx' 0 18 'ly' 0 19 'n' 0 20 'n2i' 0 21 'nproc'
0 22 'nt' 0 23 'pi' 0 24 'plot_freq' 0 25 'press' 0 26 'pressure_proj' 0
27 'rank' 0 34 're' 0 35 'root' 0 36 'run_type' 0 37 't' 0 38 'telapsed'
0 39 'tfinish' 0 40 'theta' 0 41 'tstart' 0 42 'tt' 0 43)
